<?xml version="1.0" encoding="UTF-8" standalone="no"?>
<!DOCTYPE svg PUBLIC "-//W3C//DTD SVG 1.1//EN" "http://www.w3.org/Graphics/SVG/1.1/DTD/svg11.dtd">
<svg width="100%" height="100%" viewBox="0 0 700 300" version="1.1" xmlns="http://www.w3.org/2000/svg" xmlns:xlink="http://www.w3.org/1999/xlink" xml:space="preserve" xmlns:serif="http://www.serif.com/" style="fill-rule:evenodd;clip-rule:evenodd;stroke-linejoin:round;stroke-miterlimit:1.41421;">
    <g id="Layer1" transform="matrix(1,0,0,1,0,95)">
        <g transform="matrix(1.32446,0,0,1.32446,-132.318,-234.24)">
            <path d="M545.02,194.915C545.509,195.404 535.849,221.322 517.779,227.795C519.015,234.983 512.504,242.943 512.081,252.957C511.951,254.28 512.248,256.287 512.129,258.699C510.67,260.158 511.216,273.232 511.216,273.232C511.216,273.232 511.483,285.819 511.483,288.24C511.483,290.661 505.543,297.485 505.058,297C504.15,297.557 502.187,297 502.187,297C502.187,297 501.577,293.02 502.964,288.278C502.964,286.496 505.124,276.489 505.124,275.308C505.124,274.127 507.029,258.641 506.044,257.655C505.058,256.67 505.468,243.954 506.044,243.377C506.62,242.801 501.32,252.839 501.32,256.222C501.32,259.605 499.843,260.305 499.843,260.305C499.843,260.305 496.123,276.668 497.158,277.703C498.193,278.738 496.054,286.399 496.476,286.82C496.897,287.242 491.855,293.551 488.341,294.432C486.874,295.121 485.559,295.089 484.827,294.629C484.095,294.169 484.147,292.309 484.147,292.309C484.147,292.309 486.826,285.116 487.279,284.663C487.732,284.21 490.245,275.143 490.828,275.143C491.412,275.143 494.792,259.206 494.792,258.08C494.792,256.955 495.292,251.438 495.458,247.785C495.93,245.268 496.469,242.007 497.975,240.502C499.481,238.996 497.611,230.901 496.349,228.973C495.719,226.152 495.29,224.384 493.654,224.384C492.018,224.384 487.294,223.22 487.097,224.646C486.9,226.073 482.501,233.851 492.574,243.924C491.987,250.563 488.11,251.255 487.585,251.255C487.06,251.255 480.269,252.215 480.269,250.574C480.269,248.934 477.755,248.295 472.378,242.919C469.989,242.448 468.064,242.214 468.064,242.214C468.064,242.214 460.01,233.813 460.01,231.047C460.01,228.28 447.47,242.106 432.031,222.644C452.175,227.584 458.487,222.222 458.487,222.222C458.487,222.222 446.688,210.32 447.242,198.93C458.003,205.065 462.561,212.982 463.506,213.897C464.45,214.812 472.973,200.403 499.674,195.905C519.842,175.081 533.219,166.855 537.426,164.311C541.655,161.742 549.378,154.741 549.774,150.824C550.158,147.782 551.863,140.822 539.959,140.822C544.256,138.019 567.22,141.267 549.458,164.734C566.155,175.498 564.514,159.034 567.345,154.046C582.842,154.334 585.271,144.162 586.95,138C588.599,137.624 592.194,144.565 592.194,150.215C589.532,152.087 588.494,153.056 587.99,153.355C587.486,153.654 575.404,156.954 575.004,159.404C574.604,161.855 569.692,177.259 567.51,179.44C565.329,181.622 571.652,179.532 572.216,179.532C572.78,179.532 580.881,171.831 581.268,171.443C581.656,171.056 591.004,174.918 592.09,174.918C593.176,174.918 595.043,174.984 595.674,174.984C596.304,174.984 605.535,167.886 606.105,167.886C606.674,167.886 608.55,167.818 608,167.818C607.45,167.818 607.527,175.351 607.054,175.823C606.582,176.295 603.63,180.091 603.43,180.291C603.23,180.491 601.266,179.308 599.111,179.92C598.097,180.934 587.84,179.118 586.226,179.118C582.344,179.151 575.864,194.331 561.639,194.388C553.961,194.388 544.531,194.426 545.02,194.915Z" style="fill:rgb(43,166,230);"/>
        </g>
        <g transform="matrix(1.47732,0,0,1.47732,-170.988,-280.021)">
            <path d="M156.759,297.281L156.759,210.081C156.759,205.081 156.759,199.681 156.559,194.881L231.959,297.281L253.359,297.281L253.359,157.281L230.559,157.281L230.559,244.281C230.559,249.481 230.559,254.881 230.759,259.681L155.359,157.281L133.959,157.281L133.959,297.281L156.759,297.281Z" style="fill:rgb(43,166,230);fill-rule:nonzero;"/>
            <path d="M349.359,297.281L349.359,245.881L404.359,157.281L378.759,157.281L337.959,225.081L297.359,157.281L271.759,157.281L326.559,245.881L326.559,297.281L349.359,297.281Z" style="fill:rgb(43,166,230);fill-rule:nonzero;"/>
        </g>
    </g>
</svg>
